…
``` r

library(brulee)
library(recipes)
library(yardstick)

data(bivariate, package = "modeldata")
set.seed(20)
nn_log_biv <- brulee_mlp(Class ~ log(A) + log(B), data = bivariate_train, 
                         hidden_units = 3)

# We use the tidymodels semantics to always return a tibble when predicting
predict(nn_log_biv, bivariate_test, type = "prob") 
#> # A tibble: 710 × 2
#>    .pred_One .pred_Two
#>        <dbl>     <dbl>
#>  1     0.675     0.325
#>  2     0.673     0.327
#>  3     0.679     0.321
#>  4     0.688     0.312
#>  5     0.685     0.315
#>  6     0.679     0.321
#>  7     0.674     0.326
#>  8     0.681     0.319
#>  9     0.697     0.303
#> 10     0.675     0.325
#> # ℹ 700 more rows
```
…
