Fit a single layer neural network using torch — lantern_mlp • lantern
…
 set.seed(1)
 fit <- lantern_mlp(ames_rec, data = ames_train,
                  dropout = 0.25, epochs = 20, batch_size = 32)
 fit

 autoplot(fit)

 predict(fit, ames_test)
 }

#> # A tibble: 930 x 1
#>    .pred
#>    <dbl>
#>  1  5.22
#>  2  5.22
#>  3  5.33
#>  4  5.32
#>  5  5.31
#>  6  5.29
#>  7  5.29
#>  8  5.26
#>  9  5.26
#> 10  5.23
#> # … with 920 more rows
…
