…
  set.seed(2)
  fit <- brulee_saint(class ~ ., data = tr_data,
                      epochs = 50L, batch_size = 64L, stop_iter = 10L,
                      learn_rate = 0.001)
  fit

  autoplot(fit)

 predict(fit, te_data)
 predict(fit, te_data, type = "prob")
}
#> # A tibble: 50 × 2
#>    .pred_class_1 .pred_class_2
#>            <dbl>         <dbl>
#>  1         0.446         0.554
#>  2         0.454         0.546
#>  3         0.432         0.568
#>  4         0.454         0.546
#>  5         0.454         0.546
#>  6         0.454         0.546
#>  7         0.442         0.558
#>  8         0.446         0.554
#>  9         0.454         0.546
#> 10         0.459         0.541
#> # ℹ 40 more rows
…
