…
 library(recipes)

 ames_rec <-
  recipe(Sale_Price ~ Longitude + Latitude, data = ames_train) |>
    step_normalize(all_numeric_predictors())

 set.seed(2)
 fit <- brulee_rln(ames_rec, data = ames_train, hidden_units = 20L, epochs = 30L)

 predict(fit, ames_test)
}
#> # A tibble: 930 × 1
#>    .pred
#>    <dbl>
#>  1  5.19
#>  2  5.36
#>  3  5.36
#>  4  5.27
#>  5  5.29
#>  6  5.24
#>  7  5.22
#>  8  5.22
#>  9  5.24
#> 10  5.21
#> # ℹ 920 more rows
…
