…
  set.seed(2)
  fit <- brulee_auto_int(class ~ ., data = tr_data,
                         epochs = 50L, batch_size = 64L, stop_iter = 10L,
                         hidden_units = 5, hidden_activations = "relu",
                         learn_rate = 0.01, penalty = 0.01)
  fit

  autoplot(fit)

 predict(fit, te_data)
 predict(fit, te_data, type = "prob")
}
#> # A tibble: 50 × 2
#>    .pred_class_1 .pred_class_2
#>            <dbl>         <dbl>
#>  1        0.830        0.170  
#>  2        0.528        0.472  
#>  3        0.438        0.562  
#>  4        0.0112       0.989  
#>  5        0.196        0.804  
#>  6        0.0213       0.979  
#>  7        0.0701       0.930  
#>  8        0.0594       0.941  
#>  9        0.993        0.00749
#> 10        0.762        0.238  
#> # ℹ 40 more rows
…
