…
 # Using recipe
 library(recipes)

 ames_rec <-
  recipe(Sale_Price ~ Longitude + Latitude, data = ames_train) |>
    step_normalize(all_numeric_predictors())

 set.seed(2)
 fit <- brulee_mlp(ames_rec, data = ames_train, epochs = 50, batch_size = 32)

 predict(fit, ames_test)
}
#> # A tibble: 930 × 1
#>    .pred
#>    <dbl>
#>  1  5.28
#>  2  5.27
#>  3  5.27
#>  4  5.34
#>  5  5.26
#>  6  5.24
#>  7  5.26
#>  8  5.24
#>  9  5.23
#> 10  5.19
#> # ℹ 920 more rows
…
