…
 # Using recipe
 library(recipes)

 ames_rec <-
  recipe(Sale_Price ~ Longitude + Latitude, data = ames_train) |>
    step_normalize(all_numeric_predictors())

 set.seed(2)
 fit <- brulee_resnet(ames_rec, data = ames_train,
                      hidden_units = 2, num_layers = 2, bottleneck_units = 10,
                      epochs = 50, batch_size = 32)

 predict(fit, ames_test)
}
#> # A tibble: 930 × 1
#>    .pred
#>    <dbl>
#>  1  5.21
#>  2  5.30
#>  3  5.29
#>  4  5.23
#>  5  5.25
#>  6  5.21
#>  7  5.22
#>  8  5.22
#>  9  5.22
#> 10  5.21
#> # ℹ 920 more rows
…
