…
 # Using recipe
 library(recipes)

 ames_rec <-
  recipe(Sale_Price ~ Longitude + Latitude, data = ames_train) |>
    step_normalize(all_numeric_predictors())

 set.seed(2)
 fit <- brulee_linear_reg(ames_rec, data = ames_train, epochs = 50)

 predict(fit, ames_test)
}
#> # A tibble: 930 × 1
#>    .pred
#>    <dbl>
#>  1  5.23
#>  2  5.29
#>  3  5.29
#>  4  5.26
#>  5  5.26
#>  6  5.25
#>  7  5.24
#>  8  5.24
#>  9  5.25
#> 10  5.24
#> # ℹ 920 more rows
…
