Predict from a brulee_mlp — predict.brulee_mlp • brulee
…
 # Using recipe
 library(recipes)

 ames_rec <-
  recipe(Sale_Price ~ Longitude + Latitude, data = ames_train) |>
    step_normalize(all_numeric_predictors())

 set.seed(2)
 fit <- brulee_mlp(ames_rec, data = ames_train, epochs = 50, batch_size = 32)

 predict(fit, ames_test)
}
#> Warning: 'batch_size' is only used for the SGD optimizer.
#> # A tibble: 930 × 1
#>    .pred
#>    <dbl>
#>  1  5.19
#>  2  5.34
#>  3  5.34
#>  4  5.27
#>  5  5.30
#>  6  5.26
#>  7  5.24
#>  8  5.24
#>  9  5.25
#> 10  5.23
#> # ℹ 920 more rows
…
